{
    "data": [
        {
            "_id": "605157044221922ef0694499",
            "status": "OPEN",
            "name": "850 y.o Van Gogh Tools",
            "desc": "850 y.o Van Gogh Tools, consectetur adipiscing elit. Vestibulum commodo ut ligula eu pulvinar. Phasellus a imperdiet nunc. Integer consectetur quis sapien nec interdum",
            "startingPrice": 5400,
            "closeTime": "2021-03-26T22:10:28.489Z",
            "thumbnail": "https://placeimg.com/640/480/any/sepia"
        },
        {
            "_id": "605157044221922ef069449a",
            "status": "OPEN",
            "name": "350 y.o Van Gogh Dress",
            "desc": "350 y.o Van Gogh Dress, consectetur adipiscing elit. Vestibulum commodo ut ligula eu pulvinar. Phasellus a imperdiet nunc. Integer consectetur quis sapien nec interdum",
            "startingPrice": 2050,
            "closeTime": "2021-03-24T03:10:28.489Z",
            "thumbnail": "https://placeimg.com/640/480/any/sepia"
        },
        {
            "_id": "605157044221922ef0694495",
            "status": "OPEN",
            "name": "850 y.o Ancient Japanese Armor",
            "desc": "850 y.o Ancient Japanese Armor, consectetur adipiscing elit. Vestibulum commodo ut ligula eu pulvinar. Phasellus a imperdiet nunc. Integer consectetur quis sapien nec interdum",
            "startingPrice": 2350,
            "closeTime": "2021-03-17T09:10:28.489Z",
            "thumbnail": "https://placeimg.com/640/480/any/sepia"
        },
        {
            "_id": "605157044221922ef0694498",
            "status": "OPEN",
            "name": "700 y.o Romanian Bag",
            "desc": "700 y.o Romanian Bag, consectetur adipiscing elit. Vestibulum commodo ut ligula eu pulvinar. Phasellus a imperdiet nunc. Integer consectetur quis sapien nec interdum",
            "startingPrice": 800,
            "closeTime": "2021-03-19T00:10:28.489Z",
            "thumbnail": "https://placeimg.com/640/480/any/sepia"
        },
        {
            "_id": "605157044221922ef0694496",
            "status": "OPEN",
            "name": "850 y.o Romanian Dress",
            "desc": "850 y.o Romanian Dress, consectetur adipiscing elit. Vestibulum commodo ut ligula eu pulvinar. Phasellus a imperdiet nunc. Integer consectetur quis sapien nec interdum",
            "startingPrice": 1700,
            "closeTime": "2021-03-25T16:10:28.489Z",
            "thumbnail": "https://placeimg.com/640/480/any/sepia"
        },
        {
            "_id": "605157044221922ef0694494",
            "status": "OPEN",
            "name": "100 BC Renaissance Statue",
            "desc": "100 BC Renaissance Statue, consectetur adipiscing elit. Vestibulum commodo ut ligula eu pulvinar. Phasellus a imperdiet nunc. Integer consectetur quis sapien nec interdum",
            "startingPrice": 3800,
            "closeTime": "2021-03-19T03:10:28.489Z",
            "thumbnail": "https://placeimg.com/640/480/any/sepia"
        },
        {
            "_id": "605157044221922ef0694492",
            "status": "OPEN",
            "name": "100 BC Wooden Chair",
            "desc": "100 BC Wooden Chair, consectetur adipiscing elit. Vestibulum commodo ut ligula eu pulvinar. Phasellus a imperdiet nunc. Integer consectetur quis sapien nec interdum",
            "startingPrice": 5250,
            "closeTime": "2021-03-22T04:10:28.489Z",
            "thumbnail": "https://placeimg.com/640/480/any/sepia"
        },
        {
            "_id": "605157044221922ef0694491",
            "status": "OPEN",
            "name": "850 y.o Romanian Dress",
            "desc": "850 y.o Romanian Dress, consectetur adipiscing elit. Vestibulum commodo ut ligula eu pulvinar. Phasellus a imperdiet nunc. Integer consectetur quis sapien nec interdum",
            "startingPrice": 950,
            "closeTime": "2021-03-18T18:10:28.489Z",
            "thumbnail": "https://placeimg.com/640/480/any/sepia"
        },
        {
            "_id": "605157044221922ef0694493",
            "status": "OPEN",
            "name": "300 BC Ottoman Lamp",
            "desc": "300 BC Ottoman Lamp, consectetur adipiscing elit. Vestibulum commodo ut ligula eu pulvinar. Phasellus a imperdiet nunc. Integer consectetur quis sapien nec interdum",
            "startingPrice": 3150,
            "closeTime": "2021-03-18T08:10:28.489Z",
            "thumbnail": "https://placeimg.com/640/480/any/sepia"
        },
        {
            "_id": "605157044221922ef0694497",
            "status": "OPEN",
            "name": "500 y.o Renaissance Statue",
            "desc": "500 y.o Renaissance Statue, consectetur adipiscing elit. Vestibulum commodo ut ligula eu pulvinar. Phasellus a imperdiet nunc. Integer consectetur quis sapien nec interdum",
            "startingPrice": 4550,
            "closeTime": "2021-03-17T17:10:28.489Z",
            "thumbnail": "https://placeimg.com/640/480/any/sepia"
        }
    ],
    "perPage": 10,
    "page": 1,
    "pageCount": 10,
    "sort": {
        "createdAt": -1
    },
    "count": 100
}